<svg xmlns="http://www.w3.org/2000/svg" width="26" height="26" viewBox="0 0 26 26">
    <path fill="#FFF" fill-rule="nonzero" d="M22.317 18.5a4.09 4.09 0 0 1-1.417-3.1v-6a7.9 7.9 0 0 0-15.8 0v6a4.09 4.09 0 0 1-1.417 3.1h18.634zm2.683 1H1c-.667 0-.667-1 0-1a3.1 3.1 0 0 0 3.1-3.1v-6a8.9 8.9 0 0 1 17.8 0v6a3.1 3.1 0 0 0 3.1 3.1c.667 0 .667 1 0 1zm-14.07 4c.55.63 1.291.993 2.07.993.779 0 1.52-.362 2.07-.993h-4.14zm5.517-.275c-.703 1.397-2.015 2.268-3.447 2.268s-2.744-.871-3.447-2.268A.5.5 0 0 1 10 22.5h6a.5.5 0 0 1 .447.725z"/>
</svg>
