<svg xmlns="http://www.w3.org/2000/svg" width="56" height="56" viewBox="0 0 56 56">
    <defs>
        <linearGradient id="a" x1="33.958%" x2="33.958%" y1="-45.651%" y2="199.436%">
            <stop offset="0%" stop-color="#220A3C"/>
            <stop offset="43.069%" stop-color="#AC0E6E"/>
            <stop offset="100%" stop-color="#CC258B"/>
        </linearGradient>
    </defs>
    <g fill="none" fill-rule="evenodd">
        <circle cx="28" cy="28" r="27.533"  stroke="#D7D7D7" stroke-width=".933"/>
        <path fill="url(#a)" fill-rule="nonzero" d="M32.238 13.024v.81a.405.405 0 1 1-.81 0v-.81h-.809a.405.405 0 0 1 0-.81h.81v-.81a.405.405 0 0 1 .81 0v.81h.809a.405.405 0 1 1 0 .81h-.81zm4.452 4.047v1.215a.405.405 0 0 1-.809 0V17.07h-1.214a.405.405 0 1 1 0-.81h1.214v-1.213a.405.405 0 0 1 .81 0v1.214h1.214a.405.405 0 1 1 0 .81H36.69zm-2.523 9.84l3.895 4.902-.792.63-6.11-7.697c-.634-.8-1.246-1.086-1.823-.848a1.632 1.632 0 0 0-.852.7 1.45 1.45 0 0 0 .053 1.225c.2.486 1.226 2.396 1.98 3.795l1.265 2.332c.888 1.629 1.652 3.035 1.852 3.445.344.708.3 1.66.253 2.58a7.976 7.976 0 0 0 .025 1.594c.207 1.191.478 2.115 1.179 3.035a5.666 5.666 0 0 0 1.695 1.44.506.506 0 0 1-.23.956l.012-.003a.506.506 0 0 1-.228-.055 6.615 6.615 0 0 1-2.043-1.715c-.817-1.076-1.14-2.158-1.367-3.45-.201.008-.445.015-.705.015-.635 0-1.346-.038-1.715-.193-.79-.329-2.978-2.997-3.304-3.483a1.809 1.809 0 0 1 .286-2.378c.037-.036.076-.07.115-.103L12.95 24.91a1.95 1.95 0 0 1-.68-2.664l5.16-8.676a1.953 1.953 0 0 1 2.671-.678l14.874 8.854a1.95 1.95 0 0 1 .678 2.66l-.346.585c1.095.373 3.394 1.164 4.191 1.49 1.156.478 1.65 1.685 2.085 2.75l.096.235c.463 1.118 2.448 13.08 2.674 14.439a.506.506 0 0 1-.418.581l-.073.006a.506.506 0 0 1-.506-.423c-.875-5.297-2.294-13.452-2.61-14.219l-.1-.237c-.394-.967-.758-1.88-1.535-2.199-.816-.336-3.36-1.205-4.332-1.535l-.612 1.031zm-.67-.844l1.289-2.166a.938.938 0 0 0-.327-1.283l-14.881-8.856a.941.941 0 0 0-1.265.324l-5.173 8.679a.938.938 0 0 0 .326 1.282l14.874 8.854a.937.937 0 0 0 .554.126.506.506 0 0 1 .194-.037.938.938 0 0 0 .535-.415l.707-1.179c-.234-.43-.469-.865-.697-1.29-1.232-2.277-1.857-3.476-2.024-3.886-.394-.956-.23-1.651-.022-2.064a2.578 2.578 0 0 1 1.368-1.181c.718-.296 1.821-.337 3.003 1.153l1.54 1.94zm-2.61 6.355l-.394.659a1.935 1.935 0 0 1-.682.68l.002.027c.194.338.408.663.642.975.228.326.425.61.546.83.174.23 1.26.6 1.865.744a1.772 1.772 0 0 0-.14-.494c-.187-.387-.948-1.786-1.828-3.402l-.01-.019zm1.97 6.344a8.762 8.762 0 0 1 .029-.829c.008-.187.017-.376.022-.561-.617-.125-2.395-.597-2.79-1.3-.095-.175-.288-.45-.49-.739a9.972 9.972 0 0 1-.735-1.12.883.883 0 0 0-.704.252.797.797 0 0 0-.142 1.083c.417.625 2.403 2.909 2.85 3.111.254.106 1.133.132 1.96.103zM19.996 22.12a1.012 1.012 0 0 1-.506-.142l-1.856-1.105a1.012 1.012 0 0 1-.352-1.386l.835-1.404c.286-.48.906-.637 1.386-.352l1.847 1.103c.48.286.637.906.351 1.386l-.835 1.404a1.012 1.012 0 0 1-.87.496zm0-1.012l.848-1.406-1.857-1.106L18.15 20l1.857 1.106-.013.002zm1.958 5.727a.506.506 0 0 1-.253-.07l-6.07-3.613a.506.506 0 0 1 .505-.87l6.071 3.612a.506.506 0 0 1-.253.941zm3.008 1.788a.506.506 0 0 1-.253-.07l-1.77-1.05a.506.506 0 1 1 .505-.87l1.77 1.05a.506.506 0 0 1-.252.94z"/>
    </g>
</svg>
