<svg xmlns="http://www.w3.org/2000/svg" width="30" height="30" viewBox="0 0 30 30">
    <g fill="none" fill-rule="evenodd">
        <circle cx="15" cy="15" r="14" stroke="#81014F" stroke-width="2"/>
        <path fill="#81014F" d="M15 8a1 1 0 0 1 1 1v8a1 1 0 0 1-2 0V9a1 1 0 0 1 1-1zm0 14a1 1 0 1 1 0-2 1 1 0 0 1 0 2z"/>
    </g>
</svg>
