<svg xmlns="http://www.w3.org/2000/svg" width="14" height="16" viewBox="0 0 14 16">
    <g fill="#81014F" fill-rule="nonzero">
        <path d="M13.944 15a.5.5 0 1 1-1 0v-1.556a2.611 2.611 0 0 0-2.61-2.61H4.11a2.611 2.611 0 0 0-2.611 2.61V15a.5.5 0 1 1-1 0v-1.556a3.611 3.611 0 0 1 3.611-3.61h6.222a3.611 3.611 0 0 1 3.611 3.61V15zM7.222 7.722a3.611 3.611 0 1 1 0-7.222 3.611 3.611 0 0 1 0 7.222zm0-1a2.611 2.611 0 1 0 0-5.222 2.611 2.611 0 0 0 0 5.222z"/>
    </g>
</svg>
