<svg xmlns="http://www.w3.org/2000/svg" width="30" height="30" viewBox="0 0 30 30">
    <path fill="#81014F" fill-rule="nonzero" d="M15 28c7.18 0 13-5.82 13-13S22.18 2 15 2 2 7.82 2 15s5.82 13 13 13zm0 2C6.716 30 0 23.284 0 15 0 6.716 6.716 0 15 0c8.284 0 15 6.716 15 15 0 8.284-6.716 15-15 15zm0-22a1 1 0 0 1 1 1v8a1 1 0 0 1-2 0V9a1 1 0 0 1 1-1zm0 14a1 1 0 1 0 0-2 1 1 0 0 0 0 2z"/>
</svg>
