<svg xmlns="http://www.w3.org/2000/svg" width="23" height="25" viewBox="0 0 23 25">
    <g fill="#FFF" fill-rule="nonzero">
        <path d="M22.833 24.5a.5.5 0 1 1-1 0v-2.667A4.833 4.833 0 0 0 17 17H6.333A4.833 4.833 0 0 0 1.5 21.833V24.5a.5.5 0 1 1-1 0v-2.667A5.833 5.833 0 0 1 6.333 16H17a5.833 5.833 0 0 1 5.833 5.833V24.5zM11.667 11.667a5.833 5.833 0 1 1 0-11.667 5.833 5.833 0 0 1 0 11.667zm0-1a4.833 4.833 0 1 0 0-9.667 4.833 4.833 0 0 0 0 9.667z"/>
    </g>
</svg>
